ISSS608 Visual Analytics and Applications - Hands-on Exercise 5
…
In this section, we will use tbl_graph() of tidygraph package to build an tidygraph's network graph data.frame. More details are available in the reference guide of tbl_graph().

gastech_graph <- tbl_graph(nodes = gastech_nodes,
                           edges = gastech_edges_agg,
                           directed = TRUE)

We will review the output tidygraph object in the following.

gastech_graph

# A tbl_graph: 54 nodes and 1372 edges
#
# A directed multigraph with 1 component
#
# A tibble: 54 × 4
     id label               Department     Title                                
  <dbl> <chr>               <chr>          <chr>                                
1     1 Mat.Bramar          Administration Assistant to CEO                     
2     2 Anda.Ribera         Administration Assistant to CFO                     
3     3 Rachel.Pantanal     Administration Assistant to CIO                     
4     4 Linda.Lagos         Administration Assistant to COO                     
5     5 Ruscella.Mies.Haber Administration Assistant to Engineering Group Manag…
6     6 Carla.Forluniau     Administration Assistant to IT Group Manager        
# ℹ 48 more rows
#
# A tibble: 1,372 × 4
   from    to Weekday Weight
  <int> <int> <ord>    <int>
1     1     2 Sunday       5
2     1     2 Monday       2
3     1     2 Tuesday      3
# ℹ 1,369 more rows
…
It states that the Node Data is active. The notion of an active tibble within a tbl_graph object makes it possible to manipulate the data in one tibble at a time.

3.4 Changing the active object

The nodes tibble data frame is activated by default, but we can change which tibble data frame is active with the activate() function. Thus, if we wanted to rearrange the rows in the edges tibble to list those with the highest "weight" first, we could use activate() and then arrange().

gastech_graph %>% activate(edges) %>% 
  arrange(desc(Weight))

# A tbl_graph: 54 nodes and 1372 edges
#
# A directed multigraph with 1 component
#
# A tibble: 1,372 × 4
   from    to Weekday  Weight
  <int> <int> <ord>     <int>
1    40    41 Saturday     13
2    41    43 Monday       11
3    35    31 Tuesday      10
4    40    41 Monday       10
5    40    43 Monday       10
6    36    32 Sunday        9
# ℹ 1,366 more rows
#
# A tibble: 54 × 4
     id label           Department     Title           
  <dbl> <chr>           <chr>          <chr>           
1     1 Mat.Bramar      Administration Assistant to CEO
2     2 Anda.Ribera     Administration Assistant to CFO
3     3 Rachel.Pantanal Administration Assistant to CIO
# ℹ 51 more rows
…
