ISSS608 Visual Analytics and Applications - Take-home Exercise 3
…
3.3 Cleaning up duplicated nodes

We note that there are over 2,000 rows of duplicated nodes.

mc3_nodes[duplicated(mc3_nodes),]

# A tibble: 2,595 × 5
   id                              country type    revenue_omu product_services
   <chr>                           <chr>   <chr>         <dbl> <chr>           
 1 Smith Ltd                       ZH      Company          NA Unknown         
 2 Williams LLC                    ZH      Company          NA Unknown         
 3 Garcia Inc                      ZH      Company          NA Unknown         
 4 Walker and Sons                 ZH      Company          NA Unknown         
 5 Walker and Sons                 ZH      Company          NA Unknown         
 6 Smith LLC                       ZH      Company          NA Unknown         
 7 Smith Ltd                       ZH      Company          NA Unknown         
 8 Romero Inc                      ZH      Company          NA Unknown         
 9 Niger River   Marine life       Oceanus Company          NA Unknown         
10 Coastal Crusaders AS Industrial Oceanus Company          NA Unknown         
# ℹ 2,585 more rows
…
# extract type Beneficial Owner
bo_nodes <- mc3_nodes %>% 
  filter(type == "Beneficial Owner")

# extract type Company Contacts
cc_nodes <- mc3_nodes %>% 
  filter(type == "Company Contacts")

# bo nodes that have meaningful product_services
bo_nodes_w_pdtsvcs <- bo_nodes %>% 
  filter(product_services != 'character(0)')
bo_nodes_w_pdtsvcs

# A tibble: 23 × 5
   id                           country type        revenue_omu product_services
   <chr>                        <chr>   <chr>             <dbl> <chr>           
 1 Avila LLC                    ZH      Beneficial…  235611643. Ambergris, cast…
 2 Callahan-Peterson            ZH      Beneficial…   55376193. Fishery         
 3 Carpenter-Gilbert            ZH      Beneficial…  308249623. Fish; live, orn…
 4 Carter, Schmidt and Mitchell ZH      Beneficial…  192637437. Fish; frozen, y…
 5 Dunn, Berg and Thompson      ZH      Beneficial…  118742327. Seaweeds and ot…
 6 Guerra, Kane and Wells       ZH      Beneficial…   53655293. Fish preparatio…
 7 Jefferson PLC                ZH      Beneficial…  203710636. Yachts and othe…
 8 Jordan-Marsh                 ZH      Beneficial…   60117979. Food Preparatio…
 9 Knight Ltd                   ZH      Beneficial…  284359003. Fish transport  
10 Long, Bartlett and Roberts   ZH      Beneficial…   54159026. Fish preparatio…
# ℹ 13 more rows
…
entity_dtm <- entity_words %>% 
  cast_dtm(id, word, n)

entity_lda <- LDA(entity_dtm, k = 10, control = list(seed = 3650))

entity_topics <- tidy(entity_lda, matrix = "beta")
top_terms <- entity_topics %>%
  group_by(topic) %>%
  slice_max(beta, n = 10) %>% 
  ungroup() %>%
  arrange(topic, -beta)

top_terms

# A tibble: 100 × 3
   topic term       beta
   <int> <chr>     <dbl>
 1     1 salmon   0.0437
 2     1 fish     0.0412
 3     1 products 0.0302
 4     1 tuna     0.0261
 5     1 frozen   0.0233
 6     1 shrimp   0.0223
 7     1 squid    0.0183
 8     1 cod      0.0166
 9     1 sea      0.0159
10     1 fillets  0.0148
# ℹ 90 more rows

entity_gamma <- tidy(entity_lda, matrix = "gamma")
entity_gamma

# A tibble: 81,290 × 3
   document                    topic    gamma
   <chr>                       <int>    <dbl>
 1 Gentry-Pearson                  1 0.996   
 2 Williams-Ali                    1 0.689   
 3 Sea Harvest Plc Transit         1 0.995   
 4 Uttarakhand s Plc Forwading     1 0.0738  
 5 Nguyen, Buchanan and Long       1 0.000665
 6 Byrd-Williams                   1 0.000832
 7 Balkan Trout S.A. de C.V.       1 0.781   
 8 Clarke-Day                      1 0.000641
 9 Evans, Pugh and Pennington      1 0.00137 
10 Gvardeysk Sextant ОАО Cargo     1 0.176   
# ℹ 81,280 more rows

entity_classifications <- entity_gamma %>%
  group_by(document) %>%
  slice_max(gamma) %>%
  ungroup()

entity_classifications

# A tibble: 8,131 × 3
   document                     topic gamma
   <chr>                        <int> <dbl>
 1 1 AS Marine sanctuary            9 0.540
 2 1 Eel Corporation Transport      8 0.689
 3 1 Ltd. Corporation Transport     8 0.689
 4 1 Ltd. Liability Co              8 0.689
 5 1 Ltd. Liability Co Cargo        8 0.689
 6 1 S.A. de C.V.                   8 0.689
 7 1 Swordfish Ltd Solutions        8 0.689
 8 1 and Sagl Forwading             3 0.865
 9 2 Flounder ОАО Consultants       5 0.983
10 2 Limited Liability Company     10 0.927
# ℹ 8,121 more rows
…
